{
	"ambientocclusion": false,
	"texture_size": [48, 48],
	"textures": {
		"top": "dimension_mod:block/lush_portal",
		"side": "minecraft:block/moss_block",
		"bottom": "minecraft:block/moss_block",
		"particle": "dimension_mod:block/lush_portal"
	},
	"elements": [
		{
			"from": [0, 0, 0],
			"to": [16, 11, 16],
			"color": 6,
			"faces": {
				"north": {"uv": [0, 6, 16, 16], "texture": "#side"},
				"east": {"uv": [0, 6, 16, 16], "texture": "#side"},
				"south": {"uv": [0, 6, 16, 16], "texture": "#side"},
				"west": {"uv": [0, 6, 16, 16], "texture": "#side"},
				"up": {"uv": [5.33333, 10.66667, 10.66667, 16], "texture": "#top"},
				"down": {"uv": [0, 0, 16, 16], "texture": "#bottom"}
			}
		}
	]
}